{
	"additionalNodes": [],
	"additionalParameters": {
		"root": {
			"height": 128,
			"width": 235
		}
	},
	"inputs": [ {
		"command": "BETS_POSITION",
		"name": "extractPoint1"
	}, {
		"command": "BETS_POSITION",
		"name": "extractPoint2"
	} ],
	"outputs": [],
	"properties": {
		"38eWgXnI0dELRLsFiXXHCT0dovxITbmo": {
			"height": 91,
			"title": "luaCondition",
			"width": 293,
			"x": 773,
			"y": 380
		},
		"5zeOZl9Ufzyh3pbolCm29jP9sOlYDZIm": {
			"height": 60,
			"title": "sequence",
			"width": 143,
			"x": 523,
			"y": -126
		},
		"6KbK1XeoCjpvI7CXTkCr6GWlpvoG6N62": {
			"height": 94,
			"title": "store",
			"width": 393,
			"x": 720,
			"y": -257
		},
		"9MmxBezj2zNqLWPn6krohZthhZgi9uYc": {
			"height": 54,
			"title": "success",
			"width": 132,
			"x": 1111,
			"y": 448
		},
		"BZuSXulAtjTJtVGYjzJJTEKyXhb8PKtJ": {
			"height": 70,
			"title": "roleSplit",
			"width": 202,
			"x": 524,
			"y": 20
		},
		"BimSjtQIRI8PyyJRvVHz7aFrfo3HdL8K": {
			"height": 54,
			"title": "success",
			"width": 145,
			"x": 773,
			"y": 289
		},
		"C6n3aI12XmXlsyXetd6cY2xHaL9sAtgb": {
			"height": 90,
			"title": "luaCondition",
			"width": 280,
			"x": 1027,
			"y": 13
		},
		"CFKKLZVkJD8HmgwscIsk9m6pCJabKUkl": {
			"height": 173,
			"title": "reference",
			"width": 327,
			"x": 721,
			"y": -166
		},
		"E15zPu9AiUVIZeMHCWX2u4QOeVI0FLUP": {
			"height": 95,
			"title": "store",
			"width": 307,
			"x": 1302,
			"y": 470
		},
		"EIZrJbJnbcd1eKgFHcGfUbehxKUylQYK": {
			"height": 94,
			"title": "store",
			"width": 474,
			"x": 1301,
			"y": 379
		},
		"HvEnEjLSHOSj2q2ldTkXIAUM71GXSU54": {
			"height": 90,
			"title": "luaCondition",
			"width": 271,
			"x": 774,
			"y": 160
		},
		"IHkiqGyRUWu27c9JSwXs2NlXz32aS5h8": {
			"height": 70,
			"title": "selector",
			"width": 131,
			"x": 1092,
			"y": 205
		},
		"Mshz33GmQFkr2q6Wd8fqxnzHm8cceBJg": {
			"height": 91,
			"title": "luaCondition",
			"width": 199,
			"x": 778,
			"y": 13
		},
		"O8eaXyTQLjpqkybBo8320yhvv6jSppgw": {
			"height": 79,
			"title": "parallel",
			"width": 289,
			"x": 1359,
			"y": 17
		},
		"WboP16WzC5rK4IvTd18anPMV5qzuK8ul": {
			"height": 94,
			"title": "store",
			"width": 291,
			"x": 1360,
			"y": 96
		},
		"Y44bOyECFIkZFDVdcaHPJfYKW0vHe82D": {
			"height": 193,
			"title": "reference",
			"width": 295,
			"x": 1697,
			"y": 177
		},
		"bsT4SCRlZ02qZeQQeLYQJ41UrkCh1XUP": {
			"height": 90,
			"title": "Common.relativeMove",
			"width": 234,
			"x": 1263,
			"y": 198
		},
		"lSsYTsbTWmxOLstxtpydz6fwf4jJv3Bn": {
			"height": 92,
			"title": "store",
			"width": 166,
			"x": 1266,
			"y": 285
		},
		"n6PQ9Qo5H3aSv1sUNrRgokc7svA3S7I1": {
			"height": 193,
			"title": "reference",
			"width": 295,
			"x": 1698,
			"y": -23
		},
		"oY5VhVgNS64IdopEYFBrtOHc9Dx6TNB3": {
			"height": 193,
			"title": "reference",
			"width": 295,
			"x": 1981,
			"y": 96
		},
		"ohQcnj2OF0wZ4nezG0vOriT20ZvG2x7f": {
			"height": 60,
			"title": "sequence",
			"width": 143,
			"x": 1111,
			"y": 391
		},
		"qtvf4kdgike2PS9I7fyQ01fWE4TEFsVc": {
			"height": 193,
			"title": "reference",
			"width": 295,
			"x": 1982,
			"y": 294
		},
		"s0JeDC8ItlNgNNogNH4vRiHbzB8zZCDB": {
			"height": 54,
			"title": "success",
			"width": 132,
			"x": 1031,
			"y": 101
		},
		"tfApfQ9cKrYvYmdLTi4kwywXKn3XQWne": {
			"height": 54,
			"title": "success",
			"width": 132,
			"x": 1091,
			"y": 156
		},
		"vVxDpDuqehdis3HVMaNRCFgAHvepOwPk": {
			"height": 90,
			"title": "luaCondition",
			"width": 194,
			"x": 273,
			"y": 13
		},
		"wZ0TwTVjAlf0PWq0gXPFbMxamPFF4zGF": {
			"height": 94,
			"title": "store",
			"width": 374,
			"x": 720,
			"y": -348
		}
	},
	"roles": [ {
		"categories": [ "nota_zavorka_hw.Atlas" ],
		"name": "Atlas"
	}, {
		"categories": [ "nota_zavorka_hw.Peeper" ],
		"name": "Peeper"
	}, {
		"categories": [ "nota_zavorka_hw.ttdr-nontrans" ],
		"name": "Non transportable"
	}, {
		"categories": [],
		"name": "Transportable"
	} ],
	"root": {
		"children": [ {
			"children": [ {
				"children": [],
				"id": "wZ0TwTVjAlf0PWq0gXPFbMxamPFF4zGF",
				"nodeType": "luaCommand",
				"parameters": [ {
					"name": "var",
					"value": "base"
				}, {
					"name": "value",
					"value": "Sensors.core.missionInfo().safeArea[\"center\"]"
				}, {
					"name": "scriptName",
					"value": "store"
				} ],
				"scriptName": "store"
			}, {
				"children": [],
				"id": "6KbK1XeoCjpvI7CXTkCr6GWlpvoG6N62",
				"nodeType": "luaCommand",
				"parameters": [ {
					"name": "var",
					"value": "baseRadius"
				}, {
					"name": "value",
					"value": "Sensors.core.missionInfo().safeArea[\"radius\"]-10"
				}, {
					"name": "scriptName",
					"value": "store"
				} ],
				"scriptName": "store"
			}, {
				"children": [],
				"id": "CFKKLZVkJD8HmgwscIsk9m6pCJabKUkl",
				"nodeType": "reference",
				"parameters": [ {
					"name": "behaviourName",
					"value": "nota_zavorka_hw.GetValleyGrid"
				} ],
				"referenceInputs": [ {
					"name": "base",
					"value": "base"
				}, {
					"name": "extractPoints",
					"value": "{extractPoint1,extractPoint2}"
				} ],
				"referenceOutputs": [ {
					"name": "grid",
					"value": "navigationGrid"
				} ]
			} ],
			"id": "5zeOZl9Ufzyh3pbolCm29jP9sOlYDZIm",
			"nodeType": "sequence",
			"parameters": []
		}, {
			"children": [ {
				"children": [ {
					"children": [ {
						"children": [ {
							"children": [],
							"id": "n6PQ9Qo5H3aSv1sUNrRgokc7svA3S7I1",
							"nodeType": "reference",
							"parameters": [ {
								"name": "behaviourName",
								"value": "nota_zavorka_hw.Send_5_atlases"
							} ],
							"referenceInputs": [ {
								"name": "units",
								"value": "units"
							}, {
								"name": "firstIndex",
								"value": "1"
							}, {
								"name": "targets",
								"value": "targets"
							}, {
								"name": "grid",
								"value": "navigationGrid"
							} ],
							"referenceOutputs": []
						}, {
							"children": [],
							"id": "oY5VhVgNS64IdopEYFBrtOHc9Dx6TNB3",
							"nodeType": "reference",
							"parameters": [ {
								"name": "behaviourName",
								"value": "nota_zavorka_hw.Send_5_atlases"
							} ],
							"referenceInputs": [ {
								"name": "units",
								"value": "units"
							}, {
								"name": "firstIndex",
								"value": "6"
							}, {
								"name": "targets",
								"value": "targets"
							}, {
								"name": "grid",
								"value": "navigationGrid"
							} ],
							"referenceOutputs": []
						}, {
							"children": [],
							"id": "Y44bOyECFIkZFDVdcaHPJfYKW0vHe82D",
							"nodeType": "reference",
							"parameters": [ {
								"name": "behaviourName",
								"value": "nota_zavorka_hw.Send_5_atlases"
							} ],
							"referenceInputs": [ {
								"name": "units",
								"value": "units"
							}, {
								"name": "firstIndex",
								"value": "11"
							}, {
								"name": "targets",
								"value": "targets"
							}, {
								"name": "grid",
								"value": "navigationGrid"
							} ],
							"referenceOutputs": []
						}, {
							"children": [],
							"id": "qtvf4kdgike2PS9I7fyQ01fWE4TEFsVc",
							"nodeType": "reference",
							"parameters": [ {
								"name": "behaviourName",
								"value": "nota_zavorka_hw.Send_5_atlases"
							} ],
							"referenceInputs": [ {
								"name": "units",
								"value": "units"
							}, {
								"name": "firstIndex",
								"value": "16"
							}, {
								"name": "targets",
								"value": "targets"
							}, {
								"name": "grid",
								"value": "navigationGrid"
							} ],
							"referenceOutputs": []
						} ],
						"id": "O8eaXyTQLjpqkybBo8320yhvv6jSppgw",
						"nodeType": "parallel",
						"parameters": [ {
							"name": "mode",
							"value": "all-success"
						} ]
					}, {
						"children": [],
						"id": "WboP16WzC5rK4IvTd18anPMV5qzuK8ul",
						"nodeType": "luaCommand",
						"parameters": [ {
							"name": "var",
							"value": "end_mission"
						}, {
							"name": "value",
							"value": "nota_zavorka_hw.EndMission()"
						}, {
							"name": "scriptName",
							"value": "store"
						} ],
						"scriptName": "store"
					} ],
					"id": "C6n3aI12XmXlsyXetd6cY2xHaL9sAtgb",
					"nodeType": "luaCondition",
					"parameters": [ {
						"name": "expression",
						"value": "targets[\"stateless\"] > 0 and #units > 0"
					}, {
						"name": "repeat",
						"value": "true"
					} ]
				}, {
					"children": [],
					"id": "s0JeDC8ItlNgNNogNH4vRiHbzB8zZCDB",
					"nodeType": "success",
					"parameters": []
				} ],
				"id": "Mshz33GmQFkr2q6Wd8fqxnzHm8cceBJg",
				"nodeType": "luaCondition",
				"parameters": [ {
					"name": "expression",
					"value": "targets ~= nil "
				}, {
					"name": "repeat",
					"value": "false"
				} ]
			}, {
				"children": [ {
					"children": [],
					"id": "tfApfQ9cKrYvYmdLTi4kwywXKn3XQWne",
					"nodeType": "success",
					"parameters": []
				}, {
					"children": [ {
						"children": [],
						"id": "bsT4SCRlZ02qZeQQeLYQJ41UrkCh1XUP",
						"nodeType": "luaCommand",
						"parameters": [ {
							"name": "dist",
							"value": "{x = 0, z = 3*baseRadius}"
						}, {
							"name": "fight",
							"value": "false"
						}, {
							"name": "scriptName",
							"value": "Common.relativeMove"
						} ],
						"scriptName": "Common.relativeMove"
					}, {
						"children": [],
						"id": "lSsYTsbTWmxOLstxtpydz6fwf4jJv3Bn",
						"nodeType": "luaCommand",
						"parameters": [ {
							"name": "var",
							"value": "peepersMoved"
						}, {
							"name": "value",
							"value": "true"
						}, {
							"name": "scriptName",
							"value": "store"
						} ],
						"scriptName": "store"
					} ],
					"id": "IHkiqGyRUWu27c9JSwXs2NlXz32aS5h8",
					"nodeType": "selector",
					"parameters": [ {
						"name": "active",
						"value": "false"
					} ]
				} ],
				"id": "HvEnEjLSHOSj2q2ldTkXIAUM71GXSU54",
				"nodeType": "luaCondition",
				"parameters": [ {
					"name": "expression",
					"value": "peepersMoved == true or #units==0"
				}, {
					"name": "repeat",
					"value": "true"
				} ]
			}, {
				"children": [],
				"id": "BimSjtQIRI8PyyJRvVHz7aFrfo3HdL8K",
				"nodeType": "success",
				"parameters": []
			}, {
				"children": [ {
					"children": [ {
						"children": [],
						"id": "EIZrJbJnbcd1eKgFHcGfUbehxKUylQYK",
						"nodeType": "luaCommand",
						"parameters": [ {
							"name": "var",
							"value": "basePositions"
						}, {
							"name": "value",
							"value": "nota_zavorka_hw.GetBasePositions(#units,base,baseRadius)"
						}, {
							"name": "scriptName",
							"value": "store"
						} ],
						"scriptName": "store"
					}, {
						"children": [],
						"id": "E15zPu9AiUVIZeMHCWX2u4QOeVI0FLUP",
						"nodeType": "luaCommand",
						"parameters": [ {
							"name": "var",
							"value": "targets"
						}, {
							"name": "value",
							"value": "InitTargets({},basePositions)"
						}, {
							"name": "scriptName",
							"value": "store"
						} ],
						"scriptName": "store"
					} ],
					"id": "ohQcnj2OF0wZ4nezG0vOriT20ZvG2x7f",
					"nodeType": "sequence",
					"parameters": []
				}, {
					"children": [],
					"id": "9MmxBezj2zNqLWPn6krohZthhZgi9uYc",
					"nodeType": "success",
					"parameters": []
				} ],
				"id": "38eWgXnI0dELRLsFiXXHCT0dovxITbmo",
				"nodeType": "luaCondition",
				"parameters": [ {
					"name": "expression",
					"value": "targets == nil"
				}, {
					"name": "repeat",
					"value": "false"
				} ]
			} ],
			"id": "BZuSXulAtjTJtVGYjzJJTEKyXhb8PKtJ",
			"nodeType": "roleSplit",
			"parameters": [ {
				"name": "mode",
				"value": "all-success"
			} ]
		} ],
		"id": "vVxDpDuqehdis3HVMaNRCFgAHvepOwPk",
		"nodeType": "luaCondition",
		"parameters": [ {
			"name": "expression",
			"value": "base == nil"
		}, {
			"name": "repeat",
			"value": "false"
		} ]
	}
}