{
	"additionalNodes": [],
	"additionalParameters": {
		"root": {
			"height": 93,
			"width": 178
		}
	},
	"inputs": [],
	"outputs": [],
	"properties": {
		"55ClcdLIotjUeW6qDcZwCcDe43TPGjvh": {
			"height": 94,
			"title": "store",
			"width": 349,
			"x": 914,
			"y": 60
		},
		"Aun0l0xn1q75vvuK1CuGSGFyGzqzJ659": {
			"height": 90,
			"title": "Common.relativeMove",
			"width": 226,
			"x": 699,
			"y": 50
		},
		"Lq0EPr5o5x5Xyf0JdwP8mniGqXd29IO5": {
			"height": 157,
			"title": "roleSplit",
			"width": 232,
			"x": 198,
			"y": -22
		},
		"PJ5KgAmnZohoWBoe6NKCX1cr0MxZ7PiY": {
			"height": 96,
			"title": "store",
			"width": 318,
			"x": 703,
			"y": -159
		},
		"ShvQhLN1CQjuAzCFSLm1zaKYyVlmunQu": {
			"height": 97,
			"title": "store",
			"width": 439,
			"x": 477,
			"y": 188
		},
		"ndA6iS9qi8tPhIrLZWYjdJc9gDiIsaH6": {
			"height": 94,
			"title": "store",
			"width": 402,
			"x": 705,
			"y": -48
		},
		"tE2aiTKOOFCpHCTsFDtHdq5d3vDaufWQ": {
			"height": 94,
			"title": "store",
			"width": 322,
			"x": 1041,
			"y": -149
		},
		"xk6ZgFqFvbp77pT1yK0HHtc7NW0Hgpro": {
			"height": 60,
			"title": "sequence",
			"width": 143,
			"x": 471,
			"y": -90
		}
	},
	"roles": [ {
		"categories": [ "nota_zavorka_hw.bcomRole" ],
		"name": "bcom"
	}, {
		"categories": [],
		"name": "default"
	} ],
	"root": {
		"children": [ {
			"children": [ {
				"children": [],
				"id": "PJ5KgAmnZohoWBoe6NKCX1cr0MxZ7PiY",
				"nodeType": "luaCommand",
				"parameters": [ {
					"name": "var",
					"value": "dx"
				}, {
					"name": "value",
					"value": "nota_zavorka_hw.Wind().dirX"
				}, {
					"name": "scriptName",
					"value": "store"
				} ],
				"scriptName": "store"
			}, {
				"children": [],
				"id": "tE2aiTKOOFCpHCTsFDtHdq5d3vDaufWQ",
				"nodeType": "luaCommand",
				"parameters": [ {
					"name": "var",
					"value": "dz"
				}, {
					"name": "value",
					"value": "nota_zavorka_hw.Wind().dirZ"
				}, {
					"name": "scriptName",
					"value": "store"
				} ],
				"scriptName": "store"
			}, {
				"children": [],
				"id": "ndA6iS9qi8tPhIrLZWYjdJc9gDiIsaH6",
				"nodeType": "luaCommand",
				"parameters": [ {
					"name": "var",
					"value": "oldPos"
				}, {
					"name": "value",
					"value": "nota_zavorka_hw.Position(units[1])"
				}, {
					"name": "scriptName",
					"value": "store"
				} ],
				"scriptName": "store"
			}, {
				"children": [],
				"id": "Aun0l0xn1q75vvuK1CuGSGFyGzqzJ659",
				"nodeType": "luaCommand",
				"parameters": [ {
					"name": "dist",
					"value": "{x = dx*20, z = dz*20}"
				}, {
					"name": "fight",
					"value": "false"
				}, {
					"name": "scriptName",
					"value": "Common.relativeMove"
				} ],
				"scriptName": "Common.relativeMove"
			}, {
				"children": [],
				"id": "55ClcdLIotjUeW6qDcZwCcDe43TPGjvh",
				"nodeType": "luaCommand",
				"parameters": [ {
					"name": "var",
					"value": "someVar"
				}, {
					"name": "value",
					"value": "nota_zavorka_hw.DrawDir(dx*20,dz*20)"
				}, {
					"name": "scriptName",
					"value": "store"
				} ],
				"scriptName": "store"
			} ],
			"id": "xk6ZgFqFvbp77pT1yK0HHtc7NW0Hgpro",
			"nodeType": "sequence",
			"parameters": []
		}, {
			"children": [],
			"id": "ShvQhLN1CQjuAzCFSLm1zaKYyVlmunQu",
			"nodeType": "luaCommand",
			"parameters": [ {
				"name": "var",
				"value": "someVar2"
			}, {
				"name": "value",
				"value": "nota_zavorka_hw.FollowFormation(oldPos,dx*10,dz*10)"
			}, {
				"name": "scriptName",
				"value": "store"
			} ],
			"scriptName": "store"
		} ],
		"id": "Lq0EPr5o5x5Xyf0JdwP8mniGqXd29IO5",
		"nodeType": "roleSplit",
		"parameters": [ {
			"name": "mode",
			"value": "all-success"
		} ]
	}
}