{
	"additionalNodes": [],
	"additionalParameters": {
		"root": {
			"height": 168,
			"width": 216
		}
	},
	"inputs": [ {
		"command": "Variable",
		"name": "units"
	}, {
		"command": "Variable",
		"name": "firstIndex"
	}, {
		"command": "Variable",
		"name": "targets"
	}, {
		"command": "Variable",
		"name": "grid"
	} ],
	"outputs": [],
	"properties": {
		"4bkp2Myhlu6wL0wkWcfPKeUhc0wO5g0N": {
			"height": 172,
			"title": "reference",
			"width": 277,
			"x": 1018,
			"y": 125
		},
		"6Ykg9Et8PeOtqFaLTHrSG9WQbWeGRHHF": {
			"height": 172,
			"title": "reference",
			"width": 277,
			"x": 723,
			"y": -252
		},
		"7moEp52pMdJGQ6aLsTzmyKKPrxyLfcmI": {
			"height": 172,
			"title": "reference",
			"width": 277,
			"x": 732,
			"y": -1
		},
		"DJqwZeaVWyByATeo4SqSSmmPZq2WHIuV": {
			"height": 172,
			"title": "reference",
			"width": 277,
			"x": 729,
			"y": 250
		},
		"KwAL59HBqmMMJot1DwxhHc0f9ffzm9AB": {
			"height": 60,
			"title": "repeat",
			"width": 131,
			"x": 526,
			"y": 164
		},
		"OwlKoQU5anXwKl5ScgYIwD7hkaAlZ7Dm": {
			"height": 70,
			"title": "parallel",
			"width": 202,
			"x": 266,
			"y": 34
		},
		"Sr3VW1XDtPlUDsKM3uDx4KrZxcaDaWmM": {
			"height": 172,
			"title": "reference",
			"width": 277,
			"x": 1013,
			"y": -126
		},
		"XXPBIJd9OWWal8vfKExiJWi00Chk1fwE": {
			"height": 60,
			"title": "repeat",
			"width": 131,
			"x": 524,
			"y": -86
		},
		"n64fAbiGAkn5I1RpPRXB3umalTVstBQ3": {
			"height": 60,
			"title": "repeat",
			"width": 131,
			"x": 526,
			"y": 38
		},
		"oKKxuUzdsqatdD2vuMvX6EawPK3PmYqT": {
			"height": 60,
			"title": "repeat",
			"width": 131,
			"x": 525,
			"y": -213
		},
		"rbNCnhQ7gLuaAznOf1Oz8PcsVfi0crtY": {
			"height": 60,
			"title": "repeat",
			"width": 131,
			"x": 528,
			"y": 289
		}
	},
	"roles": [ {
		"categories": [],
		"name": "Role 0"
	} ],
	"root": {
		"children": [ {
			"children": [ {
				"children": [],
				"id": "6Ykg9Et8PeOtqFaLTHrSG9WQbWeGRHHF",
				"nodeType": "reference",
				"parameters": [ {
					"name": "behaviourName",
					"value": "nota_zavorka_hw.EvacuateUnit"
				} ],
				"referenceInputs": [ {
					"name": "atlas",
					"value": "units[firstIndex]"
				}, {
					"name": "targets",
					"value": "targets"
				}, {
					"name": "grid",
					"value": "grid"
				} ],
				"referenceOutputs": []
			} ],
			"id": "oKKxuUzdsqatdD2vuMvX6EawPK3PmYqT",
			"nodeType": "repeat",
			"parameters": []
		}, {
			"children": [ {
				"children": [],
				"id": "Sr3VW1XDtPlUDsKM3uDx4KrZxcaDaWmM",
				"nodeType": "reference",
				"parameters": [ {
					"name": "behaviourName",
					"value": "nota_zavorka_hw.EvacuateUnit"
				} ],
				"referenceInputs": [ {
					"name": "atlas",
					"value": "units[firstIndex+1]"
				}, {
					"name": "targets",
					"value": "targets"
				}, {
					"name": "grid",
					"value": "grid"
				} ],
				"referenceOutputs": []
			} ],
			"id": "XXPBIJd9OWWal8vfKExiJWi00Chk1fwE",
			"nodeType": "repeat",
			"parameters": []
		}, {
			"children": [ {
				"children": [],
				"id": "7moEp52pMdJGQ6aLsTzmyKKPrxyLfcmI",
				"nodeType": "reference",
				"parameters": [ {
					"name": "behaviourName",
					"value": "nota_zavorka_hw.EvacuateUnit"
				} ],
				"referenceInputs": [ {
					"name": "atlas",
					"value": "units[firstIndex+2]"
				}, {
					"name": "targets",
					"value": "targets"
				}, {
					"name": "grid",
					"value": "grid"
				} ],
				"referenceOutputs": []
			} ],
			"id": "n64fAbiGAkn5I1RpPRXB3umalTVstBQ3",
			"nodeType": "repeat",
			"parameters": []
		}, {
			"children": [ {
				"children": [],
				"id": "4bkp2Myhlu6wL0wkWcfPKeUhc0wO5g0N",
				"nodeType": "reference",
				"parameters": [ {
					"name": "behaviourName",
					"value": "nota_zavorka_hw.EvacuateUnit"
				} ],
				"referenceInputs": [ {
					"name": "atlas",
					"value": "units[firstIndex+3]"
				}, {
					"name": "targets",
					"value": "targets"
				}, {
					"name": "grid",
					"value": "grid"
				} ],
				"referenceOutputs": []
			} ],
			"id": "KwAL59HBqmMMJot1DwxhHc0f9ffzm9AB",
			"nodeType": "repeat",
			"parameters": []
		}, {
			"children": [ {
				"children": [],
				"id": "DJqwZeaVWyByATeo4SqSSmmPZq2WHIuV",
				"nodeType": "reference",
				"parameters": [ {
					"name": "behaviourName",
					"value": "nota_zavorka_hw.EvacuateUnit"
				} ],
				"referenceInputs": [ {
					"name": "atlas",
					"value": "units[firstIndex+4]"
				}, {
					"name": "targets",
					"value": "targets"
				}, {
					"name": "grid",
					"value": "grid"
				} ],
				"referenceOutputs": []
			} ],
			"id": "rbNCnhQ7gLuaAznOf1Oz8PcsVfi0crtY",
			"nodeType": "repeat",
			"parameters": []
		} ],
		"id": "OwlKoQU5anXwKl5ScgYIwD7hkaAlZ7Dm",
		"nodeType": "parallel",
		"parameters": [ {
			"name": "mode",
			"value": "all-success"
		} ]
	}
}